-------------------------------------------------------------------------------
Test set: TestCalculaodra
-------------------------------------------------------------------------------
Tests run: 0, Failures: 0, Errors: 0, Skipped: 0, Time elapsed: 0.01 sec
